{
    "params": {
        "local_server": "True",
        "local_uri": "mysql://root:@localhost/mydata",
        "production_uri": "mysql://root:@localhost/mydata",
        "insta_url": "https://www.instagram.com/bhattaraijay05",
        "tw_url": "https://www.twitter.com/bhattaraijay1",
        "page_title": "ProgrammingConcept"
    }
}